id,feature1,feature2,feature3,label
0,0.18289420381081434,0.7316274761532578,0.05141699801788291,0
1,0.033374604460634116,0.7208363824839883,0.7131377718483658,0
2,0.07084629624170236,0.9353113583831079,0.42288403188479073,0
3,0.24998388721011,0.8879192447969001,0.4740606029573884,0
4,0.6373935009309399,0.9836357928019337,0.5932982204956005,0
5,0.7011594810964876,0.7339165153255772,0.5421537017578025,0
6,0.9982074570189575,0.6334532425093179,0.49077752940538977,0
7,0.6927592071604108,0.622295173582667,0.612911351995392,0
8,0.9030094169395945,0.33030025405045205,0.3918546440409689,1
9,0.9867724681506057,0.018661437048974383,0.18246556560032112,1
10,0.3648099432154911,0.9208941040093308,0.016403867268727113,0
11,0.6068673215758926,0.7225171424022963,0.20995360241178118,0
12,0.9359949541441305,0.6083709653061287,0.3202465175214029,0
13,0.6073767500429716,0.8376993155251439,0.6836711649328892,0
14,0.2687297327798821,0.13853067629271842,0.6245510779942072,1
15,0.9041801656252086,0.9284059694661647,0.82545239657908,1
16,0.8931519612344003,0.48616273529566456,0.08264977930672812,0
17,0.540619089817025,0.042776247504159315,0.25775747544193417,1
18,0.13283556883896264,0.29344170429104566,0.7948584335184521,1
19,0.3184594086383514,0.08491095224806278,0.8569345019301038,1
20,0.8503391127608787,0.8505244330992178,0.5510910942971003,0
21,0.263874860279956,0.8211483090206771,0.08591993908107065,0
22,0.8872259247280692,0.7151156942230418,0.8603335412331616,0
23,0.43085632486091907,0.5156735443318118,0.6934672619470305,0
24,0.7128647217594037,0.6409906834219777,0.3350351622296298,0
25,0.31716771638155805,0.8282167076981984,0.7869214561274779,0
26,0.924220117744413,0.5749617553030939,0.466606037159492,0
27,0.8796388871832662,0.975711067147769,0.050607787392393466,0
28,0.25715345668665024,0.7458895356971126,0.5298002314836352,0
29,0.05002915678071207,0.09615910017631757,0.052287021888151264,1
30,0.2682885903075961,0.4922690913203217,0.016256157278137118,1
31,0.4092084890200258,0.2646307516118078,0.7846731192025287,0
32,0.660353388672039,0.7476281612603211,0.20929668650360145,0
33,0.9866058933989026,0.34131273676828044,0.8903890645957441,1
34,0.6920841602508306,0.37078450112179295,0.6548445774980121,1
35,0.9130949365269342,0.9330428748670276,0.05171789327210696,0
36,0.30200618516075683,0.44530510329073114,0.3742286710020347,1
37,0.9968513606457212,0.28629613094281137,0.8960216921108681,1
38,0.6491938992348012,0.04746621584579691,0.7226411820242693,0
39,0.08910002525707794,0.032354316971898056,0.8189752141006168,0
40,0.5146074641778957,0.013511335377771605,0.011847455778662752,1
41,0.2236877096339931,0.6547968829260419,0.24325064175839672,0
42,0.6372991225927606,0.11339275686887629,0.11459689002521478,1
43,0.790446560324739,0.8797308248226952,0.3284304748626319,0
44,0.7190780678439951,0.2725934778857739,0.3316386114627956,0
45,0.1437836653534792,0.31763408666100845,0.23212960904851743,1
46,0.005767483600201628,0.4917327327756881,0.9148255373943937,0
47,0.032091651386545905,0.7589022283537015,0.5532534142098227,0
48,0.9249765536550572,0.9642028814641309,0.39119818115686145,0
49,0.007014588667671906,0.8985358684701472,0.9153340501293428,0
50,0.13094272874547852,0.7708077191165793,0.29239665971699347,0
51,0.5759324817382482,0.6782026791960813,0.9383398556455691,0
52,0.28842540322598753,0.8182703317067141,0.16648807666116083,0
53,0.6043507699133207,0.2559610967880269,0.3410781878622344,1
54,0.4621102391176857,0.3411088394179027,0.3282983294924736,1
55,0.9702181104246211,0.030208136155179033,0.2424001486878976,1
56,0.3070337329783125,0.31867132980296364,0.5723588454290918,0
57,0.5903272322374314,0.8140280318103977,0.6789192274256554,0
58,0.1674623458109411,0.7123104577391645,0.9125653720872056,0
59,0.4300947015863825,0.6964419681831943,0.5761901905634628,0
60,0.31284993752689483,0.9668238668717398,0.1754589895726808,0
61,0.7477867546057838,0.7291320944743446,0.010004454571263977,0
62,0.6831995551198925,0.005961237826543675,0.7648348798596865,1
63,0.9979105354257972,0.9599275507327928,0.6770002243077272,0
64,0.13300606667403447,0.3334063252272651,0.24509536491321426,1
65,0.6067661955229752,0.00392416442147181,0.5974443082771106,1
66,0.28383378949245697,0.23364922334097793,0.5674451317431951,1
67,0.3274608451995207,0.4340521895101007,0.6754181682183933,1
68,0.08987208799250113,0.2905342952350489,0.8982783542701983,1
69,0.5678537086279097,0.8014721959123289,0.45496039879572736,1
70,0.4601776759532459,0.5487241726907102,0.2667065874495004,0
71,0.09929914032886988,0.5198160611229065,0.09435814032157108,1
72,0.18586776406063088,0.32200895672227614,0.25054380978168855,1
73,0.8413584015204147,0.21764421882922136,0.5314751161081462,0
74,0.8525767695885372,0.44770137862466153,0.5495154606793626,1
75,0.18484777774319827,0.6669506610218242,0.5399068179449987,0
76,0.39985837521524004,0.9552513767750721,0.06046297459368721,0
77,0.4903395598327728,0.19463967506811852,0.7680643213798083,1
78,0.45250729446582905,0.8566415925531428,0.2525252217744952,0
79,0.6471488978488971,0.2367651090474907,0.8539438005494465,1
80,0.5412715367192283,0.6743207279256778,0.9348711482613684,0
81,0.3887707115776372,0.18676394199896929,0.9443620084486483,1
82,0.4044384164686704,0.616425221597174,0.3554427377074363,1
83,0.4261206407401785,0.6978860502096011,0.7255227783401679,0
84,0.23369767692608234,0.0016154587838836942,0.0871224934139806,1
85,0.5309235869343231,0.1482257790962549,0.5044903521886035,1
86,0.7220223747618146,0.06965255687822225,0.653631012030196,1
87,0.18122390808783417,0.31488129573014034,0.7854350336659468,1
88,0.15841894106705356,0.7237572179873529,0.9580137504369352,0
89,0.21975322443402134,0.36704742695425063,0.9398506517643692,1
90,0.15114830627077636,0.592522959325628,0.5346885681995964,0
91,0.1281539551238854,0.19398989068011907,0.8266300277155966,1
92,0.8201053401487738,0.8031479111395559,0.31546262668841063,0
93,0.25349901800279706,0.19363638451399057,0.08734321243695398,1
94,0.3557569327509169,0.24457549112613097,0.07962655867485613,1
95,0.12871938954922157,0.3950795038676137,0.8309368448864548,1
96,0.0023090616702201583,0.6602792907706255,0.6482793542460403,0
97,0.4868103901028613,0.2245996162433449,0.873474779631736,1
98,0.2815607475977061,0.5827039070770589,0.8356526687625013,0
99,0.35598306912175315,0.41547601102485865,0.4863351322484344,1
100,0.3173328126632424,0.464704563799354,0.9202652871381676,0
101,0.3336890864598083,0.4937429736511876,0.6107129969900095,0
102,0.9250056605258935,0.48500299765547583,0.0745218830446176,1
103,0.18309431150413924,0.5060784093168055,0.7641112114724593,0
104,0.3514480606825612,0.8957697970986244,0.554161560023752,0
105,0.25436667078506836,0.617403846658515,0.13482396098375038,0
106,0.11306694228296588,0.8441642568243457,0.6813807341866319,0
107,0.029813269973474554,0.241667677956535,0.12192285653656598,1
108,0.9554786194496243,0.012560298097934797,0.03417937186726483,1
109,0.9521937523419698,0.2367401174139766,0.42176651912615526,1
110,0.07043688319724706,0.09320692898928351,0.6076331629163232,1
111,0.21421227685868383,0.8696800334134867,0.3663668115759843,0
112,0.1535394097731443,0.23592811083649767,0.7166034185670629,1
113,0.581205754189747,0.8723982520737853,0.46368636157352094,0
114,0.477722925959265,0.8881422171340908,0.7152486727550399,0
115,0.9146795378121454,0.6509515839114889,0.4437597511708068,0
116,0.8816592004314305,0.31828949076411794,0.32945273263072083,1
117,0.2574871252096159,0.9067608668080251,0.49476476647405077,0
118,0.22934860825457792,0.6764362915485699,0.16361751529782664,0
119,0.2446385821176884,0.7488969347902312,0.3619958226895288,0
120,0.3593967366463662,0.4523511986579768,0.7088567808907557,0
121,0.3815025268365204,0.8179196262763542,0.940004603578578,0
122,0.4298581093781676,0.03665538560012549,0.6263395297223349,1
123,0.3495089752506735,0.5146071699096222,0.1014572428485796,1
124,0.9910331292586375,0.2478734476781027,0.8980300514220533,1
125,0.6361690621691856,0.8469828809976374,0.30013692089205923,1
126,0.1555759114042431,0.19593986628084026,0.12288535967455516,1
127,0.16421317289763304,0.7177216135960821,0.614328185486975,1
128,0.9363468135069448,0.7459572615424074,0.716329342656923,0
129,0.16309393626903013,0.4445824955734088,0.13986019132397753,1
130,0.037911099947119276,0.6924096346958896,0.8265492174738244,0
131,0.9938745043525693,0.5869297041448674,0.6241516701144629,0
132,0.005835875998509099,0.9622283678318199,0.804864415105347,0
133,0.9077307819303346,0.05547904860415309,0.2397557316313399,1
134,0.5470097047767619,0.2932272944169093,0.35367727580046104,1
135,0.5092312988149666,0.7197932692490042,0.660750435462991,0
136,0.31268542668037436,0.7517840551042871,0.6365256673425628,0
137,0.5016840362935925,0.7759571905527699,0.9562493522611839,0
138,0.5905036588394263,0.9275518202022975,0.965666769760429,0
139,0.9659124777297913,0.7551084585754206,0.0999358298631674,0
140,0.5762377573292193,0.38891802628992567,0.3684312022262186,1
141,0.8950606601946998,0.3480299077110226,0.6987056915815902,1
142,0.006912897822387798,0.6150542535729324,0.4802153907129678,0
143,0.7808934463454398,0.8996107974796352,0.22929920824741,0
144,0.906571505899549,0.5860580485714195,0.9815420300445544,0
145,0.6727020544096953,0.036209059125371645,0.5784812465061071,1
146,0.4707164308064061,0.6305967554803406,0.408590398179946,0
147,0.6202624767190745,0.2790347966302086,0.1271614120334673,1
148,0.4805040449893171,0.4679667649273386,0.5674254810294648,1
149,0.14532624095428903,0.40175402735062227,0.12518198578470074,1
150,0.300839437128271,0.40785103970975434,0.5810803743618842,1
151,0.3546248513482545,0.13255545457721696,0.5096825771453333,1
152,0.3609124183888053,0.5478953972149078,0.3483459037250687,0
153,0.949331478400886,0.7744798638409988,0.6901538586665836,0
154,0.8569899934930021,0.12899479185324148,0.18733232668013067,1
155,0.9034103535705639,0.760747222238784,0.12434102876269515,0
156,0.537003357935485,0.7976570189598902,0.9781939667434182,1
157,0.9967893457588755,0.09139007228034257,0.6836439839501262,1
158,0.8182329524869408,0.7320866218751664,0.7435940072140115,0
159,0.8046347643872879,0.15200494614571602,0.9114535073724026,1
160,0.07490408339622456,0.5405931334941193,0.8572691060375807,0
161,0.4322449038366325,0.7532194150068794,0.1492262648271263,0
162,0.22910706739928344,0.43091491325996845,0.2952799896320649,1
163,0.6553533153315191,0.15456044282934112,0.6058872016652018,1
164,0.09070251898384807,0.5863147397195512,0.031423388382650685,0
165,0.36688748771956514,0.7834634528930903,0.6221868959470214,0
166,0.6345267979222915,0.8550028616673945,0.38017670041173957,0
167,0.30740583411896694,0.47462426966756277,0.04534597473010049,1
168,0.8925978907881303,0.011628148184601117,0.9586674095730691,1
169,0.3273118790098041,0.9651522946298745,0.45113249901412755,0
170,0.07383409615676995,0.6138444536932632,0.8578750607800963,0
171,0.10989708018547084,0.4053503001183738,0.6631800593319673,1
172,0.12768427940355787,0.2224929905920734,0.6461552036318956,1
173,0.8819303915507739,0.08138315814927588,0.10555988633358704,1
174,0.2091381276255737,0.24918442055693713,0.8766197182615586,1
175,0.9065098720278775,0.23875148696324144,0.7655854242774776,1
176,0.8978962706533361,0.16225394621392464,0.9718908847558387,1
177,0.9224948985217672,0.862540235699695,0.847215947264837,0
178,0.48178839928439543,0.30923869815901206,0.25103587682194206,1
179,0.558152456776874,0.9476527554765217,0.8060587864189814,1
180,0.25364797292329966,0.9478136150570857,0.9967632445954,0
181,0.08259849252262086,0.8450977404623479,0.532294244768912,0
182,0.9994024804479927,0.3867417557807875,0.1414567479074944,1
183,0.9419433793754656,0.8963179730447786,0.5525267852398227,0
184,0.541673707917511,0.10228001484948868,0.15035512726092892,1
185,0.5272038088298203,0.47968452869673517,0.3690651902113671,1
186,0.6513050124219524,0.668269288304614,0.4387720561173921,0
187,0.5953580585801443,0.5523544192513659,0.5305787341988547,0
188,0.6202024455547773,0.4024073286363996,0.9363255100066331,1
189,0.4721099671803305,0.13895075339535023,0.1488700901603306,1
190,0.02431820354394587,0.4462205255930636,0.6590729352722008,1
191,0.8551912028627943,0.12030111104953178,0.8626754520665084,1
192,0.8512829678722948,0.0485909891950862,0.36048084169162986,0
193,0.39005712955967686,0.35856698743689897,0.3996886576324783,1
194,0.0939771419717157,0.19257850805667676,0.5333569679027017,1
195,0.7110598360057844,0.10489664603275606,0.4517399377533209,1
196,0.33226408553814213,0.24059298838080823,0.08755099315492698,1
197,0.8724301327295753,0.841934195587831,0.3270041374303091,0
198,0.7652054478316677,0.8923982424865844,0.6721560724214826,0
199,0.16969208696845572,0.7282007038033449,0.8072051850418247,0
200,0.1591566102874763,0.4135282602245909,0.19103987529861166,1
201,0.927837293998914,0.26126786820190206,0.4109930124134197,1
202,0.38034798564919947,0.9780934604430584,0.03670831497627636,0
203,0.8624913295090849,0.41487868889174984,0.520403039153149,1
204,0.24484190021376206,0.907066405737507,0.312060453203286,0
205,0.16625565583389812,0.8042148452109292,0.293339659104644,0
206,0.7674839332220442,0.11674379517084343,0.002657570714552304,1
207,0.19033486385305898,0.4982322102841229,0.4084892951537593,1
208,0.5886165302185646,0.916343323576748,0.9907638680088751,0
209,0.20989274953349213,0.7990359384569357,0.8701469532441941,0
210,0.9824381157956182,0.17774593010576756,0.012053500467675726,1
211,0.16830684742158653,0.7598738546386907,0.033949119039614506,0
212,0.9645424632526134,0.14269246564798,0.39775245090377476,1
213,0.8287693478198196,0.9961392612707102,0.6963531517748321,0
214,0.32967284753771187,0.41095202380732454,0.32008502958579754,1
215,0.5641813422283392,0.6946299785431153,0.5984033266211746,0
216,0.202785949212276,0.3900725735560642,0.442628395468991,1
217,0.8675791889891548,0.6992980037436571,0.9282483990030087,0
218,0.0346486849569132,0.4125607801965401,0.27064334367522247,1
219,0.2017313677564816,0.4277715436175583,0.013350563005629645,1
220,0.5524076666557459,0.01237754061393892,0.5849050492112606,1
221,0.2996229265316791,0.5261185567351345,0.490937756920652,0
222,0.9859803653620588,0.759405618662364,0.6275868697973784,0
223,0.1610368991266955,0.30803575617529444,0.785783120590785,1
224,0.5555548593972784,0.06821022879546434,0.7393452696303148,1
225,0.3653611866291553,0.06415819098558939,0.29893485232081485,1
226,0.4216993854405817,0.7315504913406464,0.8961588489116152,0
227,0.09931030348823933,0.5281659572476203,0.42365254719600554,0
228,0.19810427495320404,0.9788427306565881,0.963875523274071,0
229,0.9713030525504285,0.8481135579175535,0.25239643849972015,0
230,0.22544027335798944,0.2030154816298051,0.8880872065211716,1
231,0.9812100512987341,0.06025721807573059,0.7669319909459794,1
232,0.3159799552832552,0.39500896417040443,0.07899170053160232,1
233,0.020163235704597438,0.14229721808702234,0.11113207725931029,1
234,0.37351864241619503,0.22107358031653224,0.33045816522740745,1
235,0.10232812039967654,0.1666202213799408,0.7395825267666867,1
236,0.5979209992486588,0.3067344909641446,0.33325283255786187,1
237,0.09925424291385998,0.15137877597475513,0.10660245021091119,1
238,0.10573055070342718,0.5937923030717932,0.9731734054980096,0
239,0.4121381997574203,0.18573054327647476,0.2953432287799106,1
240,0.6050857686816371,0.47318970957048756,0.78504241360821,0
241,0.15392950079395817,0.5521583795747189,0.5608637816730319,0
242,0.9207976226613425,0.8852433070548504,0.41740791100759556,0
243,0.8152228703463791,0.2904962175987752,0.29316270765350305,1
244,0.3906782954911744,0.15494697424765647,0.2864601440941421,1
245,0.20616860956458638,0.09705610301958356,0.7733704560366268,1
246,0.41611593273601755,0.3529273654765869,0.47593831517545426,1
247,0.33790236652067285,0.4470241825432387,0.01858789629240054,1
248,0.19566229956274184,0.2626631300772275,0.8294670831236903,1
249,0.18212111097410144,0.5183853250429307,0.032560220086252145,1
250,0.3457483080612336,0.15954391271475687,0.3744809988848231,1
251,0.9825666698912235,0.906467775351539,0.28537022761007846,0
252,0.9261111371286648,0.7824665239454806,0.8756392255353314,0
253,0.15766666938471563,0.0558833100879319,0.004977924707082693,1
254,0.04860512382774118,0.008814138978328945,0.19691493206738653,1
255,0.018671718911391966,0.9496690342824606,0.9649700454672065,0
256,0.2194517527736033,0.060582233187711165,0.850437574441783,1
257,0.22660298771207277,0.08266974580480879,0.7062377919958179,1
258,0.9167998602006778,0.931515970702831,0.4969432693490172,0
259,0.0014457406707841791,0.8842827033705846,0.884626661511739,0
260,0.12403520236705179,0.1707789497487373,0.718551430057888,1
261,0.7295797226067543,0.5289283824488848,0.2367733742230529,1
262,0.6636200092465432,0.2829238572634861,0.6962862966743747,1
263,0.23478921133659436,0.15213394423888738,0.42959669539085554,1
264,0.6978676512159281,0.5116498885187296,0.8303559130428533,0
265,0.14917498327615686,0.8516604998256231,0.25185840921999636,0
266,0.6674337674287028,0.7169180783242257,0.8375940862412237,0
267,0.9832204515263799,0.9170329802147179,0.10053081799936447,1
268,0.28265671331142717,0.8280791908262646,0.701024648312906,1
269,0.8067984816887865,0.2789235912933439,0.3339566612186968,1
270,0.2108954661962269,0.5106753190116554,0.9798670691410237,0
271,0.3890065148587606,0.8265655262517098,0.5359847861284427,0
272,0.6471631876105411,0.4896359063269734,0.11912319490089718,1
273,0.25173578469332913,0.6686341044459803,0.42972765406865,0
274,0.5850894215557676,0.5017490897194962,0.5213844364283132,1
275,0.9837659932326869,0.01295367989302565,0.9338675959574609,1
276,0.5414155311093578,0.06302651793277747,0.46385522709015226,1
277,0.15344164982628916,0.317790454799432,0.6456298034656701,1
278,0.7266147084786637,0.5500654623822017,0.7109731160698752,0
279,0.6569554926489559,0.4171982873478892,0.5033544586947629,1
280,0.13069327032854516,0.14820362137354137,0.9177132416151094,1
281,0.5645015366086287,0.21095280600025723,0.40321426438138863,1
282,0.5303192852669091,0.8640790065971162,0.616826005955517,0
283,0.3781356943900118,0.07767889296737684,0.35654053202518465,1
284,0.13556472512366635,0.7548856766118401,0.5065079367546256,0
285,0.7400721613682464,0.27984806188704014,0.2812886665249422,1
286,0.9256209560780049,0.8470390388167892,0.8797785676871692,0
287,0.2425517134596179,0.5799305119226674,0.16240687670705956,0
288,0.5448147880304204,0.8268131285553801,0.9534109491748316,0
289,0.9997540054810063,0.14060534517276113,0.8179215578585591,1
290,0.47483077413611563,0.8043488882786196,0.9400255609382442,0
291,0.5226643087634772,0.2901555241512187,0.5595371115614397,1
292,0.2495869667769255,0.812774283077495,0.8136980972375497,0
293,0.16517657742589553,0.7162948890584111,0.12764836350123654,0
294,0.1763475883840756,0.8844686694035797,0.292130988185198,0
295,0.4728588275478198,0.9209891441515514,0.29476870426784096,0
296,0.8341940747289799,0.5779400946644992,0.2741906761058377,0
297,0.20968803900083388,0.4184031763038517,0.1799482006544031,1
298,0.3045234702976707,0.49574961656678285,0.7527755635285184,1
299,0.3365836502543763,0.16447143562715083,0.48600150259354646,1
300,0.5900344858377339,0.875274803987901,0.01999145806227831,0
301,0.052881873715006966,0.3949937470901205,0.31191758863960295,1
302,0.8527409148788562,0.15931251482648312,0.7479187381152915,1
303,0.8770956066614884,0.7448053825341543,0.35771600948296556,0
304,0.6392839341829268,0.018917039850301576,0.015378875769095246,1
305,0.9245403409559803,0.49395030737153767,0.9872386900221405,0
306,0.7487503768756903,0.8075636505412015,0.6193637880078032,0
307,0.1257446327415177,0.23804742499757536,0.3140872088018649,1
308,0.5542615917957371,0.326394485942719,0.28604654930907913,1
309,0.3831169457229082,0.9894485724559852,0.4876057614691339,0
310,0.7259415988848164,0.6886948339461824,0.5545335303916727,0
311,0.7801754905966175,0.3803274250616092,0.9634447958870583,1
312,0.9553848151062256,0.09460330062296263,0.6821702556658769,1
313,0.4574096490406818,0.6090371062176438,0.9259079111545435,0
314,0.20626805018413286,0.5835543935895385,0.3546856411717846,0
315,0.28105156944861553,0.26825005356992604,0.81408501832529,1
316,0.833857707222975,0.5490988423625598,0.9113403796700547,0
317,0.6637979358562344,0.5961819664544273,0.03169861088822701,0
318,0.8775241651305801,0.4647157637409771,0.5859628957987417,1
319,0.40457088086187887,0.23529768732226508,0.5043788832154062,1
320,0.6242669040617402,0.12835724983460628,0.7527791750397415,1
321,0.12205953463429442,0.9634070494528318,0.5938437545531705,0
322,0.06022853939253847,0.7922017599641843,0.20936401897840418,0
323,0.3952703132986729,0.24257087056962456,0.5578871135049798,0
324,0.35779002327402654,0.5626582545263343,0.28069987111350025,0
325,0.5507789208854246,0.316585946338786,0.8687936886619795,1
326,0.11580261892527632,0.8533906712341622,0.18188740994060526,0
327,0.35342329848477305,0.4706127564886946,0.12123003850347558,1
328,0.02375969642531206,0.3902338564739938,0.8027179995092651,0
329,0.06814492992108467,0.8296606624859904,0.2146959252866535,0
330,0.06107715915722811,0.8778796329405216,0.7656414609438357,0
331,0.9019226121343475,0.6935271926029546,0.9667367802701025,0
332,0.15068982218186266,0.9917160991948131,0.3084493629189934,0
333,0.02987216236044765,0.03912996716637318,0.43224375176816154,1
334,0.4589383316901381,0.019400983422692142,0.8246846824099221,1
335,0.11850119595168218,0.4580294525738342,0.7446958791623519,0
336,0.6151563526400352,0.49746700272829447,0.040892066964218654,1
337,0.29321142800887645,0.28520651509532247,0.3960936460086141,1
338,0.7774291753420457,0.6509098753097965,0.26028900734382565,0
339,0.8535685735151317,0.7757771590199251,0.3371476339916001,0
340,0.6948065560317329,0.5019564901124673,0.12831303506430103,1
341,0.10925010582108785,0.6047152801415413,0.3140882372706456,0
342,0.7961269978326376,0.21877825523176453,0.7025485047323528,1
343,0.9890907342927074,0.8123949815729488,0.2991584630431775,0
344,0.5015054706354967,0.9891622911480886,0.6740852256793152,0
345,0.9746500904843018,0.18194034451179875,0.21553494814824437,1
346,0.061240183306024765,0.9653111871443224,0.11081180244846267,0
347,0.07228778271324554,0.988010344179306,0.3672916690075707,0
348,0.2593320500341968,0.3041479559753024,0.2707136897401369,1
349,0.26223237236534336,0.8954112286230863,0.7663935101773962,0
350,0.10132416849038584,0.1274693046054115,0.31189780571998027,1
351,0.0576801565134315,0.410384994892798,0.9269205690811464,1
352,0.873430380935169,0.047577059316972536,0.1114798529097164,0
353,0.37127043862229625,0.9724740112226558,0.7868049839523822,0
354,0.15743082523662622,0.9904972424848726,0.7828175674759505,0
355,0.8488881569001623,0.37779816429806046,0.41035606007103365,1
356,0.22321812829520626,0.3465665565114031,0.8154704896327196,1
357,0.5151750904853518,0.8581338850016417,0.48256109159751814,0
358,0.8589363445756681,0.9353125336389263,0.6402265700361115,0
359,0.6118975644782372,0.2575367518901338,0.49134058994088714,1
360,0.9559755728943728,0.8342546945378111,0.7828097916748255,0
361,0.7851682284925023,0.6521903474423567,0.8503330894095501,0
362,0.7620386129547182,0.3797625479973026,0.8176903988716666,1
363,0.17336214911967507,0.0470390143499444,0.9889379371690726,1
364,0.8516092675868642,0.10049016330890082,0.8071753149468116,0
365,0.9142230019779208,0.5525915491692031,0.9311725738022841,0
366,0.006794962116615566,0.1119520499426171,0.9021486695271614,1
367,0.9654088997602234,0.7410742041307755,0.8848242397784387,0
368,0.0871547711092635,0.18107808721793828,0.2210961298008114,1
369,0.10778284990750742,0.16998396872534016,0.3977411744595477,1
370,0.9934115389015835,0.42626873155492107,0.3933426406332723,1
371,0.16695867085820026,0.28235995157836413,0.7454380361944055,1
372,0.07138575145186177,0.6308253402589069,0.7842115767807544,0
373,0.8685272282065507,0.3685065802383649,0.9652732376346693,0
374,0.29109976113199,0.33456019906314005,0.5781467229790759,1
375,0.012492157025911554,0.8931682862354787,0.04115055037557391,1
376,0.8652803039924655,0.7631930109360879,0.3491964956500546,0
377,0.9774470076593804,0.5937042990033203,0.06717629380758794,0
378,0.8007260956040627,0.027042129925617053,0.13265920558598554,1
379,0.3232295542292172,0.08819902424751458,0.07060649298676969,1
380,0.8446923811406978,0.4432487935943795,0.892670464713198,1
381,0.7798139914146449,0.984644624402594,0.2731617408277752,0
382,0.1746553298175053,0.7978682227798467,0.7781732858899237,0
383,0.12825794767234044,0.8643496699665698,0.11300260104415372,0
384,0.8514022271447544,0.11236271303739254,0.4582334574565905,1
385,0.231308328224188,0.868488485181333,0.4819568881379439,0
386,0.9836822977565532,0.48561690279420966,0.4285684025853994,1
387,0.28425621588682304,0.48382873695109974,0.48851853722833893,1
388,0.3335477533864887,0.887857814353479,0.7196567530260168,0
389,0.8591868567192508,0.6887100725463537,0.5763105393612314,0
390,0.9106970582236487,0.9271990726970258,0.4283582519443887,0
391,0.6285017791705433,0.8681533818303631,0.028567396399198808,0
392,0.7897332750603684,0.9125652563702914,0.7899456417681429,0
393,0.23941850595189829,0.05007531297729939,0.8667060334136288,1
394,0.3052733167435826,0.5767831216176071,0.09112030727080767,0
395,0.4076627538873857,0.16069823499325098,0.4077572627836613,1
396,0.2730460523845393,0.4255639912416783,0.8873902802783592,1
397,0.9543755004488277,0.625212560238194,0.31274499603047456,0
398,0.8568684527602576,0.6707888347391968,0.9154352143035418,0
399,0.0949322835664882,0.2633265332826894,0.40850000470186953,0
400,0.03920887546809393,0.746531245713995,0.9173938833139442,0
401,0.9487887889574793,0.8496003102792329,0.7089958454107935,0
402,0.9595916185509511,0.7185712667891252,0.6193708890617337,1
403,0.05210529893310212,0.9689483720377151,0.5578702142784657,0
404,0.5342221901092478,0.24569214527833672,0.09446991723441844,1
405,0.766981005410272,0.9513555326934613,0.05237853199862719,0
406,0.8282113140383657,0.11346566889522658,0.06488356417027352,1
407,0.07352725639383528,0.3840240089624214,0.6184479200815842,1
408,0.23073555737693296,0.9836066696719138,0.9540549240854426,0
409,0.34795745862458627,0.9620778405700406,0.9806550454745597,0
410,0.4370255800769409,0.8162401358154094,0.5805311993606357,0
411,0.3099034689973166,0.4778004856826087,0.25384074670523304,1
412,0.7308343540153067,0.6355825943639608,0.17217750675690568,0
413,0.3184559201069863,0.6874724872323016,0.5515790933050743,0
414,0.5308744737254167,0.49912054710756715,0.32235522410966433,1
415,0.6583220666015631,0.31952896116842266,0.7394544281990116,1
416,0.4149038331734619,0.9871421478953196,0.803136591667424,0
417,0.8321321786596956,0.6479525516876764,0.35787951665207784,0
418,0.17888362737103347,0.28247239338318353,0.3351855043898525,1
419,0.3252500387804742,0.7725230900514461,0.6945358725595748,0
420,0.3624830007995272,0.3168054091417729,0.21534418836847102,1
421,0.17166071207259637,0.046991699993093605,0.3068593042586676,1
422,0.8624522579561174,0.6473484544424102,0.679409980888011,0
423,0.5804320803571948,0.9099489026772212,0.9066706777951101,0
424,0.4739872562260069,0.7061506978248556,0.5780793237727306,0
425,0.09234051887117956,0.5546799225885445,0.24568546129419833,0
426,0.9591411091795392,0.8953384629491724,0.3494957365997041,0
427,0.38436922262677475,0.3323695935740455,0.835632214608947,0
428,0.23181484395697693,0.5151904951793989,0.4118328397438965,0
429,0.3291660025045715,0.8992854550761958,0.529625233452421,1
430,0.9463471977188188,0.2801827729919364,0.32439407081827043,1
431,0.041208774644981516,0.7970140478096742,0.35233633299018197,0
432,0.502468538465561,0.9082183039662305,0.07948381227683654,0
433,0.45428388308639245,0.40833103954147754,0.3032981442113696,0
434,0.45726229459804646,0.2458119691715558,0.6587405294251774,0
435,0.981910032067559,0.15124290245804572,0.9226191892561523,1
436,0.18748400065632687,0.3240114529585185,0.042998643977362416,1
437,0.5508405317026059,0.9923830705729831,0.23896464697807185,0
438,0.10671812224694399,0.05879038081038612,0.24185458227380574,1
439,0.48477223634537625,0.014572233637404342,0.29201858490002064,1
440,0.3680442409735779,0.7135642523113526,0.8911934275189491,0
441,0.3575721596371696,0.7593306824406472,0.13847968806831634,0
442,0.15408182801544934,0.8986502566910236,0.7981606269093491,0
443,0.28742408915304407,0.1920348474818856,0.18023189265129447,0
444,0.5272284924441963,0.0029348091685644784,0.8034430959832292,1
445,0.3214306358366743,0.579884704742977,0.7583865937462121,0
446,0.20370380039439484,0.9516327325007082,0.16074921570452894,0
447,0.7670690582545037,0.11681121562930219,0.7916879749575658,1
448,0.47541791182382853,0.1524450720749071,0.03569200691937724,1
449,0.948489709009815,0.3465441474756089,0.7815675035917395,1
450,0.6405182544573018,0.16099215970333525,0.061151082640489185,1
451,0.9817725410536144,0.755237758596048,0.5146990868734446,0
452,0.9876476936298506,0.08622398506720608,0.2584845690542201,1
453,0.8228927631411304,0.26508013938070907,0.559474848875428,1
454,0.5897908198048567,0.5022232546868286,0.9306268300360236,0
455,0.1683104592727639,0.8348899848967483,0.4531351759181963,0
456,0.20752692588849264,0.6413590008778774,0.2749437997550159,0
457,0.06990935245508478,0.3456022019393622,0.48188744736737865,1
458,0.5400800735690664,0.12972304832258152,0.013103008985389963,1
459,0.25160926042753884,0.3678553683240392,0.8673117937042921,1
460,0.4625551281059703,0.9171621780819691,0.45058002855356816,0
461,0.4957033981443216,0.8216489037857871,0.6430603126691433,0
462,0.470584681940719,0.827607271829788,0.9829058356955548,0
463,0.4475449330713964,0.1407011961265976,0.7166049150256207,1
464,0.7002085601248962,0.17069773962384316,0.9440817043993601,0
465,0.8203148265658975,0.6954117366134698,0.9560126047428089,0
466,0.5987295880141777,0.2471243380632372,0.650524235898729,1
467,0.05572292139520918,0.1130255749760376,0.43974766094747086,0
468,0.820455340148326,0.48639848614577597,0.12521034644510465,1
469,0.31962250486831967,0.7634657087369425,0.6067407449259828,0
470,0.0017107739476937,0.9186431951298659,0.8462459133117667,0
471,0.47326386475780025,0.12842201044567025,0.9017209190975729,1
472,0.5421817442898161,0.531964091506286,0.32837511609403347,0
473,0.6508363991102277,0.7303342071645866,0.11647577078843252,0
474,0.2603842725183195,0.6493518416238684,0.382414217399767,0
475,0.42539683078463275,0.10595693814431584,0.7535142980835358,0
476,0.43741952277025287,0.26127240183947054,0.2273390638426852,1
477,0.08701452097302365,0.8980533319274048,0.9228747980513773,1
478,0.5518700067464061,0.700125630025054,0.6413691565003565,0
479,0.7630474289852601,0.7578288119057461,0.8524186228555886,0
480,0.22105035445171184,0.2972758164461715,0.1897634949223409,1
481,0.2469100236209293,0.96834200044496,0.07558974317686729,0
482,0.2210960695967168,0.8236688000893532,0.8513832423526331,0
483,0.7247140809954423,0.9660051198822418,0.7028268106744384,1
484,0.884618935442865,0.007659322202680396,0.26125540268111813,1
485,0.16808003881973088,0.5933107096251629,0.44566408265985413,0
486,0.19448191379117696,0.8520003571172575,0.2896839320635909,0
487,0.27379666274398284,0.40660665092087334,0.9840090314707797,1
488,0.4562610765079329,0.34864704177722017,0.37230401617948683,1
489,0.5021230686621924,0.1832798495458976,0.03527353640444297,1
490,0.2033380258927895,0.8169137890114008,0.5684100594964862,0
491,0.44118730999583067,0.5595642256667577,0.5382454974292971,0
492,0.26557456790956724,0.0028912342807780878,0.8182130001445241,1
493,0.0665503629802926,0.9141531839499494,0.34934235451908535,0
494,0.36210504535277,0.39437593892198475,0.9347395583710992,1
495,0.945260313124942,0.6817263519352591,0.11395097377158203,0
496,0.993864255765348,0.3115711344456151,0.09519643621576124,1
497,0.9917121768836462,0.2454149896757566,0.4712264053821137,1
498,0.5574911802738513,0.3606884742159501,0.8888718642045829,1
499,0.27974784499871963,0.006033614863190762,0.840100090727325,1
500,0.608873818449837,0.5588506625752161,0.3287052272016201,1
501,0.6016589602395906,0.0478007865106852,0.10283925003306982,1
502,0.40312131211090274,0.6417230820699806,0.6649756310576678,0
503,0.8083643365095332,0.7798562773461855,0.5071571335428878,0
504,0.4323387693413111,0.5396545288192023,0.5138540107101972,0
505,0.2590933945317129,0.2972264077547013,0.5843579367563434,1
506,0.3634565775998774,0.9936194435069385,0.6040486443802027,0
507,0.09508180742607075,0.06341873506599516,0.0917436402459817,0
508,0.052320230724846484,0.8527315252584956,0.2323773427387794,0
509,0.8253462275178576,0.0932303374368546,0.6613604988182036,1
510,0.4943726627484909,0.3443027767308835,0.6078856356077015,1
511,0.6649270576738677,0.29221215291394587,0.5581743461242952,1
512,0.020258534082645663,0.7418622679533701,0.8408296419148384,1
513,0.47902426720034685,0.4113703821665321,0.4161274158496755,1
514,0.723246922579184,0.05874405268976701,0.5135841082332924,1
515,0.1811019009603646,0.11928868240976076,0.9099110675060276,1
516,0.6448400791595877,0.02651378084258471,0.6587881760528602,1
517,0.6281998292321238,0.09150813764429633,0.3702329004960091,1
518,0.9679565902245775,0.0485666065784649,0.9660814632309928,1
519,0.30609491051178783,0.8468586473635246,0.1247910292799227,0
520,0.8984804254887836,0.9356041943997471,0.5173120858581417,1
521,0.843267933338639,0.8806899630599132,0.7178231492773809,1
522,0.26780385290469366,0.29691138643924897,0.2661444631389447,0
523,0.2634368627675703,0.3475614957461828,0.6573472936434441,1
524,0.13710969649599591,0.014846037058459549,0.024888247104950967,1
525,0.41612592660397796,0.32792018575373283,0.09581968685484121,1
526,0.75349040559757,0.7976721923275713,0.8765986123907745,0
527,0.292975112479416,0.6366354873906548,0.6795357580048335,0
528,0.15985826507982626,0.252336450883865,0.8308287384088394,1
529,0.23705958409774597,0.6728125778843258,0.5157953597360835,0
530,0.7034740667798062,0.16382192763102799,0.6016590176337714,1
531,0.4285691620071368,0.989628224091527,0.3757376700528775,0
532,0.030007664294534275,0.10773350214669386,0.9420071431214498,1
533,0.9568229271277624,0.7963110644439936,0.30525437093684304,0
534,0.7376033059685186,0.6367879110069411,0.11002928991588534,0
535,0.5866647545237915,0.9848869849349897,0.5264062872877473,0
536,0.9894444404839937,0.8154300545795942,0.7560612402992926,0
537,0.8416817137448919,0.3255161000659025,0.8886860482398402,1
538,0.27772806634513225,0.8212952974716673,0.06852445999772838,0
539,0.876306836553687,0.9493376453658467,0.8853853025686738,0
540,0.6358440378236527,0.6499653471610075,0.5747790372790602,0
541,0.5539478096179846,0.15062622289204075,0.18158553681767908,1
542,0.5202528193080188,0.22451388655343718,0.4111812029782983,1
543,0.6701096720157137,0.7306401087274711,0.052260876040186366,0
544,0.6918902091405594,0.043239835288090944,0.7220249570514915,1
545,0.2914090093693208,0.5467934326745175,0.929473353491375,0
546,0.8104801793031301,0.20753976712363598,0.356651338143397,0
547,0.9013144640173051,0.7081434446563201,0.9553973180203144,0
548,0.013783206243662582,0.6351960024854815,0.9991134420318787,0
549,0.06865258146758657,0.167018251235994,0.9204581387523112,1
550,0.4274099570325617,0.8695584779534393,0.8412373820959228,0
551,0.5154764868863609,0.850269903264674,0.871503075808651,0
552,0.3013680507756966,0.8659203429803797,0.5451492075214208,0
553,0.06369016730394228,0.4752241554921688,0.8228460154531457,0
554,0.06928127517472338,0.03161750553885834,0.05304638431560116,0
555,0.3688068924211694,0.5924078828959185,0.02977154692295314,0
556,0.2589787072110764,0.6378660759047265,0.6800203554882263,0
557,0.5207752419751046,0.3075917035292942,0.8450151227930638,1
558,0.18617810308156135,0.7030997465333507,0.2936548059811279,0
559,0.060657737327767025,0.7891347265128723,0.8889138915662276,0
560,0.28982861048007824,0.8726831024808482,0.2586842461700316,0
561,0.5730042666916303,0.09138976892852613,0.6891743002633474,1
562,0.14943448135991488,0.30213440199777153,0.5377791906567241,0
563,0.014784268285278679,0.16436522353087568,0.24374847559688595,0
564,0.8175803174938966,0.4626466241681779,0.2495648200495264,1
565,0.20980175214375996,0.5042333600447299,0.32259199520061854,0
566,0.37782306776025665,0.49957909418771373,0.35386366254522017,1
567,0.37022432681513007,0.14734159363824584,0.17527821816070643,0
568,0.6770050024658026,0.31119882760028506,0.14344926878872422,0
569,0.4598867328485,0.10695226873103247,0.7785358995929585,1
570,0.449568884302212,0.5130290068272975,0.011791044499484427,1
571,0.3786206010236002,0.06555757447666322,0.6689962059472708,1
572,0.6485779729474975,0.4398633458083603,0.5187816948245901,0
573,0.15491191896846424,0.17142253935592366,0.1010997587994189,1
574,0.49468000134118884,0.6511746456269315,0.21413194950764736,0
575,0.16442287476963835,0.7924132266410029,0.15870133125920305,0
576,0.31772826887164374,0.4250590909035852,0.8802246418219488,1
577,0.3709887397343783,0.34500124710687086,0.8869685151923339,1
578,0.9629829904756979,0.6783989503741029,0.42028450933101646,0
579,0.055086154173446755,0.8568462513044712,0.3237462105669854,0
580,0.4505589451627333,0.33428661524838055,0.5816289648189047,1
581,0.21023706275623522,0.6382607176495178,0.5017253106021984,0
582,0.16049784926156463,0.5947827205509973,0.9521793413785317,1
583,0.5878641175763056,0.016041863016830193,0.10429417100034255,0
584,0.45034370445006666,0.46510870382533753,0.2134630148189368,1
585,0.367325016496187,0.39024546563481066,0.5851661500103118,1
586,0.30572850602607027,0.24015964400810663,0.28279705489923457,1
587,0.02325883112699101,0.48992516749182613,0.7077662624582846,0
588,0.7344502656121745,0.9085400069023976,0.9991384292595492,0
589,0.8694350456322227,0.45458779784052505,0.9407648685075822,1
590,0.6049997935504374,0.05616089563110893,0.26089755509878154,1
591,0.964358403183983,0.9546838900856462,0.21512530453627032,0
592,0.3527207781156029,0.16919368285334457,0.1033648341666683,1
593,0.8632850666774107,0.3079457799109233,0.22620954354297895,1
594,0.5982978072490447,0.923947685840472,0.8806971493457283,0
595,0.5859539603717414,0.5530045026148167,0.9929409885374616,0
596,0.7741958529972901,0.1856648436560029,0.08689653690749266,0
597,0.8705651621908793,0.3787592718749696,0.42126625504791904,1
598,0.2715580230235176,0.20030742813365454,0.7283581670789031,1
599,0.054349018469967314,0.8918164136888829,0.04040001326277243,0
600,0.6998333754264577,0.8620578217427256,0.5108251517494342,0
601,0.5036515702447685,0.8262086920298106,0.9309646388807322,1
602,0.5855269162686755,0.6457771321362161,0.8461395294261898,0
603,0.5122083549573739,0.48455802799831726,0.25794710067563864,1
604,0.8035782893346588,0.20367798982381813,0.9959556247087309,0
605,0.4167668525787144,0.7298515401998307,0.5319333272088845,0
606,0.3716820936794999,0.07219948998257453,0.7423929410392258,1
607,0.14908078014007442,0.4335520207650616,0.3557214879317441,1
608,0.5512479018296408,0.9258940138957157,0.7451430318606554,0
609,0.26939715036429346,0.7729000691553843,0.3954459254582655,0
610,0.007296432777199602,0.702559297451311,0.6605793195889645,0
611,0.4003801814322381,0.8715703780700438,0.9763670385982359,0
612,0.2277252286081597,0.3976063513576642,0.49051278404881615,1
613,0.8809549741336513,0.9158384535940429,0.04069213061328725,0
614,0.859397828806098,0.5026165950873825,0.15937348157670472,1
615,0.3752891530365312,0.8266017271681528,0.6770593944092036,0
616,0.7434768078760202,0.13397072791434483,0.9592304003171451,1
617,0.5525943942120125,0.4217724449910153,0.3750316033631331,1
618,0.41733524878069983,0.7081155886000395,0.8993364669181042,0
619,0.7998052488668423,0.24948593552031384,0.11867095937782468,1
620,0.773610013601928,0.4412040053712012,0.8702363990141281,1
621,0.2787921574566965,0.9958956952109713,0.22956829922129374,0
622,0.8111772915504291,0.425005666031085,0.13570577790838345,1
623,0.7064236867666781,0.2133123318451292,0.8729811493467144,1
624,0.6879077600834256,0.04892283703272515,0.5359031812545918,1
625,0.10428563142446867,0.5209258856192756,0.6287828199495313,0
626,0.8489520789207126,0.011118933231090034,0.20295629836237516,1
627,0.2918411590961629,0.0027344214357846175,0.5458261767674946,1
628,0.09435594109056389,0.9336106903851367,0.4386412332237719,0
629,0.7006063370894934,0.7719911259421183,0.5113777897492887,1
630,0.800815592981591,0.6743339072103616,0.5851738141027747,0
631,0.48513087767927954,0.7853847529713168,0.18956855354589086,0
632,0.44342232285810124,0.5289564986670511,0.6795120962446565,0
633,0.7032113235411889,0.9005777870530491,0.5352915414707473,0
634,0.4040690829463709,0.01556478664800609,0.07504744805464791,0
635,0.9617585143801025,0.1587425787596186,0.7346115159098611,1
636,0.9211630395246607,0.045299555660353596,0.7318685450907587,0
637,0.7678802164218467,0.26815184374023504,0.23997845416924712,1
638,0.8889951781958716,0.04314792879973961,0.4476549504725791,1
639,0.14881861749643088,0.4227482651913874,0.8828557600332385,1
640,0.27415635062372223,0.9827522933914503,0.04684721514149259,0
641,0.6144529829850098,0.24677180542923172,0.16579638313088774,1
642,0.8488261473156216,0.9270921320464013,0.4806598266412667,0
643,0.9445709054550391,0.8405031596957396,0.9050042436536125,0
644,0.6235135211037925,0.2647463180856162,0.30802930156210406,1
645,0.18601395620066963,0.55736218757144,0.513217278427024,0
646,0.6877908270314349,0.9163407549567328,0.04992250926989761,0
647,0.5350234602593714,0.7092271298943659,0.8104951482112683,0
648,0.1329081588906137,0.01836640339516471,0.8019182814100503,1
649,0.49159197102085517,0.48932504434933655,0.1490122117340611,1
650,0.5517185761227784,0.22727010581764362,0.8419719960073543,1
651,0.7110822559892344,0.8310202053649701,0.6143566955021171,0
652,0.5831517493369877,0.5684279271384336,0.38608289395060047,0
653,0.2971661411751162,0.7075531699544909,0.8990435638834875,0
654,0.8727700650336547,0.752428920127584,0.608206591447493,0
655,0.5430244498085486,0.13364137520041408,0.374335323822657,1
656,0.5523884592304623,0.9980636751240017,0.0016757692649398415,0
657,0.1813683533701892,0.7610211483205409,0.9170261455539442,0
658,0.16650045650068068,0.48875845129041007,0.3350583272927323,1
659,0.39999752614594986,0.8650095024089688,0.8230017579904197,0
660,0.9063673395995558,0.13462840501901963,0.6639245504858319,1
661,0.5903197031494734,0.9545110641596208,0.4260559745606415,0
662,0.37567274425377395,0.49176410233818224,0.8210390381314898,0
663,0.27400802068715113,0.3841922773253543,0.28276693701703304,1
664,0.41829675352177864,0.6328467328759638,0.2560644842354475,0
665,0.4588569667025595,0.45435990924759173,0.6783808780852655,1
666,0.417852466173505,0.36604085764684957,0.6512876926987736,1
667,0.8449437509739264,0.7239778441508046,0.2090678505913992,0
668,0.3627289988705781,0.0010046207547518282,0.6863540051445157,1
669,0.7209464577898831,0.81335714063562,0.3678358844611612,0
670,0.8785096985882463,0.7826629795263361,0.3210705474116099,0
671,0.2526798155369676,0.25091964500785446,0.0854933384027654,1
672,0.7947014579121839,0.4426036075433255,0.682621390244645,1
673,0.5347117887545577,0.08379250638243363,0.131698282620487,1
674,0.02334402433501792,0.8040141933013509,0.1863696240307201,0
675,0.27305177621903487,0.7770091658747065,0.7169432790880363,0
676,0.5587236113642174,0.646996746500845,0.5211098277188655,0
677,0.5413800616418327,0.8267375270937385,0.5338806568248398,0
678,0.7714255865542123,0.6253963503601352,0.10060629267081123,0
679,0.9812967062999203,0.8260403798894542,0.73482844908181,0
680,0.7109597010306462,0.022355255392128237,0.06207964360848728,1
681,0.3471113197372079,0.18238739554852967,0.0382431747543418,1
682,0.4061051080741822,0.0744470499205353,0.11316998422795155,1
683,0.37047973594075523,0.4522021837836796,0.5048697637376893,1
684,0.4752529910021882,0.6154532285884414,0.5161572125679562,0
685,0.4129839717101642,0.09323432053127534,0.10418154638375732,1
686,0.5160879437397009,0.03466362387055033,0.9184273530732606,1
687,0.019469956918625297,0.010724334130779,0.01829674639287482,1
688,0.15171315410178043,0.7704781065876687,0.761978161963165,1
689,0.9635896663970847,0.6413361955828061,0.29440015705298916,0
690,0.5194883414762342,0.06175833261610253,0.4344184945923897,1
691,0.9547565833866116,0.18583755949041425,0.18366347877121902,1
692,0.46533583123496236,0.33264530114290947,0.020028618347831317,1
693,0.30367197059484663,0.5212737172409261,0.12486381279705283,1
694,0.3725993623833965,0.24281781432615657,0.6827976728710557,1
695,0.9177138054437457,0.183224333311926,0.904050563904059,0
696,0.536810771240249,0.20675613956672378,0.018665370027417416,1
697,0.8676907493779835,0.05794483295218977,0.38846157453266783,1
698,0.5466834169875581,0.12722549982352882,0.24519755982084768,1
699,0.6431424965506055,0.8490029550337711,0.9371145974731939,0
700,0.981823570678108,0.4796514649606576,0.3311713982722836,1
701,0.05670086851320999,0.9599472260909653,0.4808762325661422,0
702,0.012785518110721261,0.15823871875237827,0.7943851461179612,1
703,0.04873745102065652,0.3777187918902549,0.7853230252485243,1
704,0.4113595864702906,0.9526237545618808,0.4256748350720989,0
705,0.9585810144386242,0.30371244490233806,0.4888557674373948,1
706,0.6809516158395983,0.3407334912870358,0.5725696793033332,1
707,0.9298480058969928,0.6495821540530897,0.47370804064423955,0
708,0.1969764087909014,0.21610070610430498,0.829479155048292,1
709,0.6154783406554092,0.5038618307105769,0.16669046870914372,1
710,0.6301114425274941,0.7865346663164939,0.5919247839183689,0
711,0.19251057751202338,0.9277269808270385,0.24960580675918287,0
712,0.158973536599893,0.3839717042522096,0.4272081325672783,1
713,0.35270120747432665,0.7531327558961136,0.7988972379504459,0
714,0.5570190971787896,0.6892724008390855,0.27731950658608606,0
715,0.9960662238079367,0.9214290486035944,0.5159362974185102,0
716,0.5836936567309602,0.39372135311415124,0.5116778684078246,1
717,0.3307653085872946,0.5902038687389074,0.45706849383903836,0
718,0.5138002857415008,0.46233389629632526,0.3269732881463089,1
719,0.17483501912865362,0.3160851081118202,0.8351648206465543,1
720,0.4621942796400659,0.9401201101618178,0.9204738247793902,0
721,0.24155254561668704,0.7267059981386106,0.7776531782624889,1
722,0.159878028952128,0.9590521943675968,0.874440014550675,0
723,0.19954187737309081,0.9085497685738543,0.8832863583148036,0
724,0.23753909883227597,0.8033768893665768,0.17536782642969406,0
725,0.3703080586475709,0.5328771564828046,0.22994686512088325,1
726,0.3456391328752225,0.7734991655931949,0.356645441244858,0
727,0.23678424825408761,0.7630356800044649,0.07640319872767187,0
728,0.2305013778059647,0.6684245860385549,0.9681837318481414,0
729,0.17931494357993227,0.1943443689864499,0.5272177280756328,1
730,0.08117261843404888,0.24219025602747368,0.60109886622214,0
731,0.9940592557961195,0.05441279511329078,0.2914715888495758,1
732,0.4784593558811219,0.13219880559647845,0.04292180205794194,1
733,0.9756143214218033,0.06642112570189973,0.75821748886067,1
734,0.8821201221543263,0.0730808255544313,0.8496395553046897,1
735,0.551127769466939,0.16926986522703658,0.6463880286631045,1
736,0.46048247558545186,0.2926972664705617,0.13202389398788106,1
737,0.7026527824707018,0.506925557538821,0.912259225294628,0
738,0.9869680275271796,0.30839650333816926,0.8132303644728947,1
739,0.8596018140299877,0.3721666468692757,0.8675474456495164,1
740,0.5343711282714831,0.10379456747552807,0.15257187298504948,1
741,0.8393687077921125,0.48854391030220146,0.3573486262212251,1
742,0.6103623693382635,0.33948693003470076,0.3171802281451699,0
743,0.45506825510257565,0.9136945352056837,0.47785971465517396,1
744,0.2173199674885865,0.5685978930504504,0.6796184727772108,0
745,0.0837773615963674,0.9471009627857401,0.11130166253539919,0
746,0.2043367589208871,0.10413462252246619,0.01190703686582295,1
747,0.3412116576346831,0.9901003841060595,0.3176455936863757,0
748,0.9992296370814551,0.18710669058564,0.11707798550671522,1
749,0.8042341985953422,0.11412672558438308,0.4381045326689419,1
750,0.8219165445695227,0.15078561613922636,0.8284163377505969,1
751,0.6052663663154181,0.805840605216465,0.9813866957391165,0
752,0.8219892351796326,0.9695729465410723,0.7756192279166673,1
753,0.9659657354964581,0.22186619766063598,0.3257762183602573,1
754,0.7521231434925211,0.9107440311243957,0.8946053038284294,0
755,0.5032212484022571,0.5593621849280541,0.580349281998225,0
756,0.35921433262414115,0.10102342021752919,0.10763020880417307,1
757,0.44476272972178554,0.10156010202955246,0.2669505901712498,1
758,0.55846224106859,0.5702297945373099,0.301180504316898,0
759,0.8790653163984492,0.6436566639499683,0.5105802777080959,0
760,0.407365892875716,0.7800268781432438,0.4222683491085466,0
761,0.44108815799920886,0.4489846439056332,0.3044631635899485,0
762,0.49817459365692596,0.6568526774107745,0.6156176592645934,0
763,0.3110890032614825,0.5455973306297248,0.03348479190445952,1
764,0.9318903911553562,0.19326843648078784,0.15027773141000722,1
765,0.7038731330177311,0.4531829313830782,0.41894578949728933,1
766,0.3516574054043332,0.7787233694287458,0.41317589497096907,0
767,0.1337451242913701,0.9541442260609008,0.6235497865772094,0
768,0.4650102728206159,0.28220494759945214,0.6688886671864264,1
769,0.7902518358926983,0.9544404068881674,0.4202800393407663,0
770,0.23047759457309303,0.37424000792815637,0.748316980182817,1
771,0.4725356821379657,0.9628539069221093,0.9763990184584165,0
772,0.08917252521101282,0.4379621473435542,0.1225914700611288,1
773,0.7401589970042297,0.1439574264596032,0.8062824643496346,1
774,0.913591519563596,0.21043495322838124,0.934616346684068,1
775,0.2672991316587009,0.4751761296146163,0.6956970070995127,0
776,0.5850258385545469,0.03127981160356108,0.7632998326975036,1
777,0.43519617666870114,0.17635162651190484,0.8384260800634274,1
778,0.40962253649243696,0.6149268220219674,0.682918236838249,1
779,0.18275316267953534,0.8462930467523029,0.5609607082661189,0
780,0.7634922133481661,0.6282987697083925,0.32065574273249453,1
781,0.7866316386463001,0.7979566121250163,0.8910374919882817,0
782,0.13804350126736553,0.7170930786433749,0.7008090026679958,0
783,0.3485340665862159,0.9024728676353302,0.2749458498262558,0
784,0.8596494274240232,0.6388212681446284,0.8149038956493886,0
785,0.49297659918233616,0.03212558866788451,0.5110896258966919,1
786,0.5984528918008973,0.058431045412392524,0.6652950807990833,1
787,0.532517431928159,0.7305350459065452,0.32253501799372464,1
788,0.6252583453125443,0.3171121236385054,0.6801395266489508,1
789,0.5091390265285162,0.054538371628943705,0.30072104584388826,1
790,0.3694075262809421,0.4235214785331738,0.6011519911118951,1
791,0.0642168838153434,0.9055735161289807,0.37598231023832884,0
792,0.35256125334108546,0.7106431592722798,0.9866269195316714,0
793,0.9637542763022637,0.4548876056459511,0.04730167268843599,1
794,0.9859959520123135,0.25105531424226823,0.5553164849195631,1
795,0.9456068418758583,0.7880456775924207,0.8785928188249739,0
796,0.023959365568312796,0.46776271185606,0.9242262802136548,1
797,0.008997945904930527,0.2095876271997933,0.5930842926619527,1
798,0.14350664417172787,0.30051964139093124,0.4618030795448175,0
799,0.15469692907844435,0.44981750435929213,0.7595755094001825,0
800,0.1153128640054214,0.5542357832318234,0.3569789768360725,0
801,0.10143370168536536,0.5916131445836542,0.9423271653517385,0
802,0.9129621408535673,0.4962418309224518,0.009578776621658402,1
803,0.041606609636575254,0.981970477506486,0.2890541967742607,0
804,0.6330290851941579,0.2924738670949011,0.3171444900376795,1
805,0.07860187024870802,0.9343404299847061,0.8982391709986542,0
806,0.8121953618866936,0.5307015561187878,0.6412803745077483,0
807,0.1482520307198938,0.6492448618217057,0.8959709610089751,0
808,0.4016180143218895,0.7107916280077338,0.8968901043737643,0
809,0.3281030037913323,0.9099476441646817,0.655156047713989,0
810,0.5681805854825849,0.43129014179778746,0.5083692873190564,1
811,0.016717011138474236,0.1310470025275834,0.8372030157245474,1
812,0.19929937588538849,0.6526922376206457,0.12274358123381379,0
813,0.5100770033547275,0.26736338874467935,0.9734577931230719,1
814,0.3048232086940077,0.7616811336467468,0.19664155845694276,0
815,0.988023046731237,0.7139329645858727,0.38557255035929705,0
816,0.9627972743901765,0.2936986772291771,0.02939142352998414,1
817,0.9791899620517537,0.30558308435757187,0.25051468828413614,1
818,0.7640528155852949,0.32777354159733163,0.02251641457082787,1
819,0.6444060953564799,0.8721392030413386,0.10144027221150098,0
820,0.14088199400466572,0.8557209274005972,0.5722361422064299,0
821,0.5119694458102406,0.29422230208235567,0.1456816513976551,1
822,0.6531064604932476,0.6157263569307586,0.5502250720571426,1
823,0.30462282520775674,0.19877289520649688,0.263808483586938,1
824,0.9761454238135486,0.2896780969345837,0.3102107194771222,0
825,0.328000480540401,0.6007605417086147,0.4400625589522591,0
826,0.03007957273805184,0.10565411256987822,0.6111617764673283,1
827,0.8161717608627501,0.5182177201381972,0.2854169403296746,1
828,0.5357693766924132,0.1969572235688738,0.35689232589814956,1
829,0.6579997992823245,0.22576456182456195,0.14552632874003413,1
830,0.610019413183926,0.8523613541280459,0.7892421969454737,0
831,0.26481768757438073,0.7814647791377253,0.766912233065193,0
832,0.464699294157475,0.5646585682124886,0.48249603811160124,1
833,0.49205862530628297,0.19160175965830128,0.7712874072792457,1
834,0.7256398569270781,0.8780210607147239,0.5270236629506663,0
835,0.35164185611213294,0.12340617926045871,0.894060488195365,1
836,0.2577579826056017,0.5802530941321742,0.7766042265530605,0
837,0.39791010244010105,0.23875551192922206,0.7274398699999696,1
838,0.9322809439922387,0.7625764294945716,0.7086915719038974,0
839,0.5429676598771634,0.7743812612261766,0.06020329734375229,0
840,0.7120893420607024,0.83674877592134,0.2396887388705391,0
841,0.3128229539190396,0.9107795045958607,0.7031080845593378,1
842,0.9521971798325134,0.5589169886002395,0.6756208920328719,0
843,0.524632577160991,0.09748780955530656,0.07741503551955686,1
844,0.7929395683277344,0.6436083689919222,0.4108483901074764,0
845,0.437067753463947,0.8593225504403672,0.4148045320567517,0
846,0.2622768269375023,0.8125785798360915,0.6523138867802115,0
847,0.4626277405671353,0.11000669261644791,0.9624276321697429,1
848,0.588352377748779,0.13007440385031122,0.03917866835483885,1
849,0.7494095273573903,0.35394417237889053,0.48071948834197886,0
850,0.021878062052840375,0.600267456313087,0.10404977549731886,0
851,0.048641079758755534,0.2943915845937527,0.2612109464148077,1
852,0.483955063562313,0.3788251750231063,0.999754087649475,1
853,0.3817728718990856,0.868617863123291,0.8054564559376817,0
854,0.5126267026121067,0.4646480445983807,0.8237951900141678,0
855,0.04757629633117855,0.05158869443226066,0.10683797700253161,1
856,0.6907482476462847,0.8091830243841854,0.532655948608415,0
857,0.21580978405250495,0.1476525330640729,0.3218329649003798,1
858,0.8508940677169171,0.8815766941341143,0.22619299736938148,0
859,0.32533085919608473,0.8085666911058844,0.20466119632883883,1
860,0.926095862054203,0.6241594271144173,0.18282918561318284,0
861,0.915765787482456,0.5735897491495013,0.2633342805550595,0
862,0.8089089493075161,0.6305955639563149,0.29269469035260476,0
863,0.6049455190816003,0.2587127509503888,0.40096132557694586,1
864,0.5539840753056143,0.8514098592216596,0.3402991060896392,0
865,0.6939315504812101,0.9644558116297761,0.30349800841050667,0
866,0.2551637621910203,0.31903162298542564,0.07574927886886673,1
867,0.16964142174272445,0.5247743215964198,0.9349491794277726,1
868,0.4634992211471781,0.09683250633301643,0.7957938957479335,1
869,0.5979550618742823,0.3165897161016281,0.7785177956983388,1
870,0.19098251019881618,0.23742315857193352,0.5014690065301128,1
871,0.11920321665159261,0.9470089111349713,0.8109439787849548,0
872,0.869247234368065,0.8058075091380441,0.025630553783282717,0
873,0.3846056379548026,0.1341481660904179,0.748664612041068,1
874,0.7282682417326946,0.461282558537656,0.6295144373077454,0
875,0.19576905060004757,0.07175199521541464,0.9994880643977159,1
876,0.7950849464471575,0.9545229964512115,0.6722346573085823,0
877,0.719592606615908,0.13854468196635705,0.2503749379383696,1
878,0.39713564455227734,0.6426179151009166,0.18909921391193485,1
879,0.6420674336012272,0.5551598475563206,0.8057362962868801,0
880,0.3161686371882181,0.7894144939082383,0.9568919721087191,0
881,0.06355908867547932,0.8305975502824435,0.6011022545503888,0
882,0.8398214301852492,0.7409802751597381,0.40412164797902084,0
883,0.42107959998571753,0.01923571939308899,0.17599684159181694,1
884,0.5345991117558856,0.5004716523330117,0.9910488365111018,0
885,0.13950737130479984,0.24901196696803285,0.1433570593380349,1
886,0.20399745544248327,0.5348634865081293,0.4572352653449503,1
887,0.9886570455149946,0.6340595688237787,0.42623581893325035,0
888,0.7155147236552772,0.4361036888467562,0.45558015592209267,1
889,0.9648137381308597,0.7200145147235318,0.05901351553040113,0
890,0.1307520766003477,0.8515380343092713,0.16129989753828766,0
891,0.35885593014311,0.1255791662011282,0.4098196807389922,1
892,0.7043914955383374,0.039779697043594964,0.6749399764188226,1
893,0.2461041127601855,0.41094090238234493,0.08204668086813238,1
894,0.18304419019836826,0.40057131456532213,0.02362778417714073,1
895,0.02486958410788065,0.3982754387883306,0.03737195786778846,1
896,0.7925264417164114,0.06402188274239984,0.6950022764839136,1
897,0.0651430297609531,0.6224812399058023,0.11289884023827634,0
898,0.8789046414485492,0.8977599437555588,0.6065670522449639,0
899,0.5289703523783389,0.3486148736266329,0.7869308037159218,1
900,0.6525343714187648,0.829488878470827,0.44796085340962977,0
901,0.0030251291479355125,0.4596733570534943,0.3610342728706665,1
902,0.5400822164523605,0.25670715243026887,0.9010237546227566,1
903,0.5966544747146427,0.4121972211976327,0.9791821757388497,1
904,0.8748234823123167,0.16467947502976799,0.25791234895904447,1
905,0.8097744889361076,0.2296761552551636,0.23791996203168375,1
906,0.7098065743152425,0.057800094582229344,0.6992514338606559,0
907,0.4063614982149787,0.654158541889051,0.6056121727555709,0
908,0.9956581544000539,0.6392369622497307,0.3624827696210521,0
909,0.37054241511108654,0.5303571554493132,0.962174653889395,0
910,0.854520134252951,0.5122667966826415,0.9649229968128028,0
911,0.8487119930988953,0.9573188213561946,0.29253302398926584,1
912,0.18026248697300928,0.01437065638841939,0.6837323137577832,1
913,0.3789410007454389,0.3002442879993368,0.8168126926019477,1
914,0.4219932533392625,0.5991418659507,0.6452109994391881,0
915,0.9754483209038657,0.10707911838045692,0.5282309509843658,1
916,0.5504657172201257,0.8967521169381137,0.5944491855497209,0
917,0.9034412142393909,0.6286270673920826,0.7460506131959999,0
918,0.8438475203492098,0.6975760391815599,0.2911592894659465,0
919,0.07238420070799745,0.2085206450053283,0.9421101367815854,1
920,0.9756484737477218,0.5559409507248514,0.19575309072407265,1
921,0.2630230228774142,0.353803324268294,0.3879550545344609,1
922,0.9345717805576241,0.07287917498620011,0.6701506382936436,1
923,0.25771993333001963,0.2956263446693397,0.008397200945633454,1
924,0.8934634355591532,0.5425722557676197,0.8357298603475207,0
925,0.9575455602397239,0.3498558928783039,0.0865817630160336,0
926,0.5351671299867211,0.34928663449370956,0.9379598127422517,1
927,0.363940944877703,0.704005645984692,0.594114461112654,0
928,0.95669816192336,0.9033840351338139,0.37306996113147084,0
929,0.1995772949105047,0.05179728283949492,0.16937432863894797,1
930,0.6439452808060793,0.5161613541421685,0.6522483428259755,1
931,0.027165591678653955,0.6389662134243502,0.4590192759466345,0
932,0.5648916199571664,0.14573873079834665,0.44828418469768716,1
933,0.04660286603382091,0.9537306048744292,0.5280778113205199,0
934,0.4264075909095226,0.7576986491406161,0.8986758220762052,0
935,0.2349030144198505,0.36573919408440503,0.12137146485297667,1
936,0.013350364947341209,0.031933197025623694,0.0564838651576548,1
937,0.299911263834829,0.2726407150972989,0.7352961353209261,1
938,0.14466416916139502,0.9477967402991019,0.3251741082829127,0
939,0.3587547334840817,0.313537911451126,0.8294760543669072,1
940,0.5511736503756737,0.20092705230687913,0.4685958624722082,1
941,0.2786317978225673,0.9527177032086616,0.8091378721241699,1
942,0.6574673315527249,0.7139213498754151,0.2756915470047462,0
943,0.5688634377363787,0.5297254163776581,0.8372740108275533,0
944,0.9872233248872504,0.46403891649782303,0.6091434465654869,0
945,0.7574988536343487,0.8777330116640536,0.9867146917965324,0
946,0.5768713606735372,0.4041471696301927,0.6742705700383631,1
947,0.4077607415846094,0.3562477036645898,0.03683803431246924,1
948,0.8370616171269256,0.9470368565438848,0.08592109563472783,0
949,0.9218819844256634,0.32777658116000563,0.0022911032560650746,1
950,0.012603795876826696,0.4942529741215207,0.12984882102676798,1
951,0.1242110726612996,0.09511019715882629,0.12356620440815147,0
952,0.5169230469440199,0.4598103127347313,0.6623134957323159,1
953,0.6950350176464832,0.5082658534759756,0.48055450935283917,1
954,0.5053613660981667,0.9242194901633574,0.8542038512312147,0
955,0.29293955058579535,0.4106939935886724,0.19124040074294613,1
956,0.7167440643839088,0.8903142582460862,0.7163254693541583,1
957,0.7487287600521413,0.44135495822727244,0.34935851969986675,1
958,0.3287931150124723,0.8479741001325456,0.05833367577869086,0
959,0.8617492880627818,0.15700898405781494,0.5559338242212293,1
960,0.8841575102578435,0.038455761851811876,0.5826542534990737,1
961,0.3364003610308851,0.6864481534515529,0.6508062018593193,0
962,0.014184738838070032,0.6106935364939314,0.5716013963045501,0
963,0.2901843858787848,0.859059149702036,0.9366187324542111,0
964,0.7565871449211986,0.06149786865936291,0.1641305108506952,1
965,0.9017425990795505,0.06275471722735715,0.8293807538680077,0
966,0.6101280602585996,0.5571774873878192,0.2541247587390404,0
967,0.8044430525929682,0.6622928474161816,0.43924798427419076,0
968,0.7810159509152321,0.7876349982292284,0.8329405497973021,0
969,0.29463597672624,0.8818025250704533,0.1671734342114396,0
970,0.9436591122380227,0.3005733453169612,0.23519861232495998,1
971,0.1925681399595639,0.48241236465614556,0.48415005151914914,1
972,0.570658672809176,0.8151590532048858,0.5800850126743687,0
973,0.8670130203826469,0.8015749797124974,0.5588502974137851,0
974,0.43568355714931306,0.920522493279378,0.19058276583770395,0
975,0.48989777926295963,0.5582254404518385,0.6571936057073194,0
976,0.4249161956190698,0.9416866032684129,0.8975240898233652,0
977,0.3832929859077505,0.9828651614636905,0.5558773790870831,0
978,0.2918998043718193,0.2963276194962031,0.3693555692060514,1
979,0.22906843887701067,0.959603220202788,0.5388732438803902,0
980,0.6658345882539604,0.37973827766419477,0.17733519775769924,1
981,0.45556785517659537,0.9340660785577708,0.7582044566109476,1
982,0.7522888389533161,0.8123080470843832,0.2977750307726649,0
983,0.6143403318742285,0.8150971461919727,0.9467549865319134,1
984,0.3972176476398983,0.11382578131108911,0.6302337415502972,1
985,0.14702188574788733,0.7081232234040311,0.2018991754163647,0
986,0.04805164870224554,0.1176479142159027,0.4731265297643904,1
987,0.02146363338487489,0.7023757452974403,0.8815039436772184,0
988,0.14141902735102785,0.8438174924706309,0.30099488582572786,0
989,0.10842559227666348,0.22120550443025544,0.34304311585120884,1
990,0.051068102093929535,0.8936707706090484,0.17240949191324084,0
991,0.8066366588553519,0.30170989468687726,0.9252060637318213,1
992,0.6374587209446416,0.6086075891406668,0.5178104693983899,0
993,0.579716156688984,0.16144547428125944,0.5507097927256324,1
994,0.019110391753655143,0.8877257176904336,0.24440898896855134,0
995,0.5734409155675702,0.28765301023848744,0.9169888473295279,0
996,0.28223375485958146,0.6695355912156711,0.3294592373819134,0
997,0.40317072773675566,0.09357518325855352,0.8156270019774555,1
998,0.10594416976163523,0.8292873021849346,0.6921306863647506,0
999,0.30227423066411296,0.036287682160744295,0.6450110038683957,1
